{
    "target": "iron-gear",
    "target_count": 51.12,
    "items": {
        "iron-plate": {
            "is_raw": true,
            "is_liquid": false
        },
        "iron-gear": {
            "is_raw": false,
            "is_liquid": false
        }
    },
    "recipes": {
        "iron-gear": {
            "time": 1,
            "output": 1,
            "materials": [
                {
                    "name": "iron-gear",
                    "count": 2
                }
            ]
        }
    }
}
